﻿# Tiled2Unity generated file. Do not modify by hand.
# Wavefront file for 'Level2Alt_mesh_0014.obj'

# Vertices (Count = 8)
v -40 -50 0
v -41 -50 0
v -41 -49 0
v -40 -49 0
v -42 -50 0
v -43 -50 0
v -43 -49 0
v -42 -49 0

# Texture cooridinates (Count = 4)
vt 0.0001220703 0.0001220703
vt 0.9998779 0.0001220703
vt 0.9998779 0.9998779
vt 0.0001220703 0.9998779

# Normal
vn 0 0 -1

# Mesh description
g Level2Alt_mesh_0014

# Faces
f 1/1/1 2/2/1 3/3/1 4/4/1
f 5/1/1 6/2/1 7/3/1 8/4/1

