﻿# Tiled2Unity generated file. Do not modify by hand.
# Wavefront file for 'Level2Alt_mesh_0010.obj'

# Vertices (Count = 68)
v -40 -47 0
v -41 -47 0
v -41 -46 0
v -40 -46 0
v -43 -50 0
v -44 -50 0
v -44 -49 0
v -43 -49 0
v -38 -51 0
v -39 -51 0
v -39 -50 0
v -38 -50 0
v -39 -51 0
v -40 -51 0
v -40 -50 0
v -39 -50 0
v -40 -51 0
v -41 -51 0
v -41 -50 0
v -40 -50 0
v -41 -51 0
v -42 -51 0
v -42 -50 0
v -41 -50 0
v -42 -51 0
v -43 -51 0
v -43 -50 0
v -42 -50 0
v -48 -51 0
v -49 -51 0
v -49 -50 0
v -48 -50 0
v -49 -51 0
v -50 -51 0
v -50 -50 0
v -49 -50 0
v -49 -52 0
v -50 -52 0
v -50 -51 0
v -49 -51 0
v -49 -53 0
v -50 -53 0
v -50 -52 0
v -49 -52 0
v -38 -54 0
v -39 -54 0
v -39 -53 0
v -38 -53 0
v -40 -54 0
v -41 -54 0
v -41 -53 0
v -40 -53 0
v -42 -54 0
v -43 -54 0
v -43 -53 0
v -42 -53 0
v -44 -54 0
v -45 -54 0
v -45 -53 0
v -44 -53 0
v -46 -54 0
v -47 -54 0
v -47 -53 0
v -46 -53 0
v -48 -54 0
v -49 -54 0
v -49 -53 0
v -48 -53 0

# Texture cooridinates (Count = 4)
vt 0.0001220703 0.0001220703
vt 0.9998779 0.0001220703
vt 0.9998779 0.9998779
vt 0.0001220703 0.9998779

# Normal
vn 0 0 -1

# Mesh description
g Level2Alt_mesh_0010

# Faces
f 1/1/1 2/2/1 3/3/1 4/4/1
f 5/1/1 6/2/1 7/3/1 8/4/1
f 9/1/1 10/2/1 11/3/1 12/4/1
f 13/1/1 14/2/1 15/3/1 16/4/1
f 17/1/1 18/2/1 19/3/1 20/4/1
f 21/1/1 22/2/1 23/3/1 24/4/1
f 25/1/1 26/2/1 27/3/1 28/4/1
f 29/1/1 30/2/1 31/3/1 32/4/1
f 33/1/1 34/2/1 35/3/1 36/4/1
f 37/1/1 38/2/1 39/3/1 40/4/1
f 41/1/1 42/2/1 43/3/1 44/4/1
f 45/1/1 46/2/1 47/3/1 48/4/1
f 49/1/1 50/2/1 51/3/1 52/4/1
f 53/1/1 54/2/1 55/3/1 56/4/1
f 57/1/1 58/2/1 59/3/1 60/4/1
f 61/1/1 62/2/1 63/3/1 64/4/1
f 65/1/1 66/2/1 67/3/1 68/4/1

