﻿# Tiled2Unity generated file. Do not modify by hand.
# Wavefront file for 'Level1Alt2_mesh_0033.obj'

# Vertices (Count = 12)
v -90 -37 0
v -91 -37 0
v -91 -36 0
v -90 -36 0
v -94 -38 0
v -95 -38 0
v -95 -37 0
v -94 -37 0
v -96 -39 0
v -97 -39 0
v -97 -38 0
v -96 -38 0

# Texture cooridinates (Count = 4)
vt 0.9998779 0.0001220703
vt 0.0001220703 0.0001220703
vt 0.0001220703 0.9998779
vt 0.9998779 0.9998779

# Normal
vn 0 0 -1

# Mesh description
g Level1Alt2_mesh_0033

# Faces
f 1/1/1 2/2/1 3/3/1 4/4/1
f 5/1/1 6/2/1 7/3/1 8/4/1
f 9/1/1 10/2/1 11/3/1 12/4/1

