﻿# Tiled2Unity generated file. Do not modify by hand.
# Wavefront file for 'Level3Alt1_mesh_0029.obj'

# Vertices (Count = 4)
v -38 -51 0
v -39 -51 0
v -39 -50 0
v -38 -50 0

# Texture cooridinates (Count = 4)
vt 0 0
vt 1 0
vt 1 1
vt 0 1

# Normal
vn 0 0 -1

# Mesh description
g Level3Alt1_mesh_0029

# Faces
f 1/1/1 2/2/1 3/3/1 4/4/1

