﻿# Tiled2Unity generated file. Do not modify by hand.
# Wavefront file for 'Level3Alt1_mesh_0018.obj'

# Vertices (Count = 184)
v -32 -44 0
v -33 -44 0
v -33 -43 0
v -32 -43 0
v -34 -44 0
v -35 -44 0
v -35 -43 0
v -34 -43 0
v -35 -45 0
v -36 -45 0
v -36 -44 0
v -35 -44 0
v -36 -45 0
v -37 -45 0
v -37 -44 0
v -36 -44 0
v -37 -45 0
v -38 -45 0
v -38 -44 0
v -37 -44 0
v -38 -45 0
v -39 -45 0
v -39 -44 0
v -38 -44 0
v -39 -45 0
v -40 -45 0
v -40 -44 0
v -39 -44 0
v -39 -47 0
v -40 -47 0
v -40 -46 0
v -39 -46 0
v -40 -47 0
v -41 -47 0
v -41 -46 0
v -40 -46 0
v -41 -47 0
v -42 -47 0
v -42 -46 0
v -41 -46 0
v -42 -47 0
v -43 -47 0
v -43 -46 0
v -42 -46 0
v -40 -48 0
v -41 -48 0
v -41 -47 0
v -40 -47 0
v -42 -48 0
v -43 -48 0
v -43 -47 0
v -42 -47 0
v -39 -49 0
v -40 -49 0
v -40 -48 0
v -39 -48 0
v -40 -49 0
v -41 -49 0
v -41 -48 0
v -40 -48 0
v -41 -49 0
v -42 -49 0
v -42 -48 0
v -41 -48 0
v -42 -49 0
v -43 -49 0
v -43 -48 0
v -42 -48 0
v -40 -50 0
v -41 -50 0
v -41 -49 0
v -40 -49 0
v -62 -56 0
v -63 -56 0
v -63 -55 0
v -62 -55 0
v -64 -56 0
v -65 -56 0
v -65 -55 0
v -64 -55 0
v -65 -56 0
v -66 -56 0
v -66 -55 0
v -65 -55 0
v -67 -56 0
v -68 -56 0
v -68 -55 0
v -67 -55 0
v -62 -57 0
v -63 -57 0
v -63 -56 0
v -62 -56 0
v -64 -57 0
v -65 -57 0
v -65 -56 0
v -64 -56 0
v -65 -57 0
v -66 -57 0
v -66 -56 0
v -65 -56 0
v -67 -57 0
v -68 -57 0
v -68 -56 0
v -67 -56 0
v -62 -58 0
v -63 -58 0
v -63 -57 0
v -62 -57 0
v -64 -58 0
v -65 -58 0
v -65 -57 0
v -64 -57 0
v -65 -58 0
v -66 -58 0
v -66 -57 0
v -65 -57 0
v -67 -58 0
v -68 -58 0
v -68 -57 0
v -67 -57 0
v -62 -59 0
v -63 -59 0
v -63 -58 0
v -62 -58 0
v -64 -59 0
v -65 -59 0
v -65 -58 0
v -64 -58 0
v -65 -59 0
v -66 -59 0
v -66 -58 0
v -65 -58 0
v -67 -59 0
v -68 -59 0
v -68 -58 0
v -67 -58 0
v -62 -60 0
v -63 -60 0
v -63 -59 0
v -62 -59 0
v -64 -60 0
v -65 -60 0
v -65 -59 0
v -64 -59 0
v -65 -60 0
v -66 -60 0
v -66 -59 0
v -65 -59 0
v -67 -60 0
v -68 -60 0
v -68 -59 0
v -67 -59 0
v -62 -61 0
v -63 -61 0
v -63 -60 0
v -62 -60 0
v -64 -61 0
v -65 -61 0
v -65 -60 0
v -64 -60 0
v -65 -61 0
v -66 -61 0
v -66 -60 0
v -65 -60 0
v -67 -61 0
v -68 -61 0
v -68 -60 0
v -67 -60 0
v -62 -62 0
v -63 -62 0
v -63 -61 0
v -62 -61 0
v -64 -62 0
v -65 -62 0
v -65 -61 0
v -64 -61 0
v -65 -62 0
v -66 -62 0
v -66 -61 0
v -65 -61 0
v -67 -62 0
v -68 -62 0
v -68 -61 0
v -67 -61 0

# Texture cooridinates (Count = 4)
vt 1 0
vt 1 1
vt 0 1
vt 0 0

# Normal
vn 0 0 -1

# Mesh description
g Level3Alt1_mesh_0018

# Faces
f 1/1/1 2/2/1 3/3/1 4/4/1
f 5/1/1 6/2/1 7/3/1 8/4/1
f 9/1/1 10/2/1 11/3/1 12/4/1
f 13/1/1 14/2/1 15/3/1 16/4/1
f 17/1/1 18/2/1 19/3/1 20/4/1
f 21/1/1 22/2/1 23/3/1 24/4/1
f 25/4/1 26/1/1 27/2/1 28/3/1
f 29/4/1 30/1/1 31/2/1 32/3/1
f 33/4/1 34/1/1 35/2/1 36/3/1
f 37/4/1 38/1/1 39/2/1 40/3/1
f 41/4/1 42/1/1 43/2/1 44/3/1
f 45/4/1 46/1/1 47/2/1 48/3/1
f 49/4/1 50/1/1 51/2/1 52/3/1
f 53/4/1 54/1/1 55/2/1 56/3/1
f 57/4/1 58/1/1 59/2/1 60/3/1
f 61/4/1 62/1/1 63/2/1 64/3/1
f 65/4/1 66/1/1 67/2/1 68/3/1
f 69/4/1 70/1/1 71/2/1 72/3/1
f 73/4/1 74/1/1 75/2/1 76/3/1
f 77/4/1 78/1/1 79/2/1 80/3/1
f 81/4/1 82/1/1 83/2/1 84/3/1
f 85/4/1 86/1/1 87/2/1 88/3/1
f 89/4/1 90/1/1 91/2/1 92/3/1
f 93/4/1 94/1/1 95/2/1 96/3/1
f 97/4/1 98/1/1 99/2/1 100/3/1
f 101/4/1 102/1/1 103/2/1 104/3/1
f 105/4/1 106/1/1 107/2/1 108/3/1
f 109/4/1 110/1/1 111/2/1 112/3/1
f 113/4/1 114/1/1 115/2/1 116/3/1
f 117/4/1 118/1/1 119/2/1 120/3/1
f 121/4/1 122/1/1 123/2/1 124/3/1
f 125/4/1 126/1/1 127/2/1 128/3/1
f 129/4/1 130/1/1 131/2/1 132/3/1
f 133/4/1 134/1/1 135/2/1 136/3/1
f 137/4/1 138/1/1 139/2/1 140/3/1
f 141/4/1 142/1/1 143/2/1 144/3/1
f 145/4/1 146/1/1 147/2/1 148/3/1
f 149/4/1 150/1/1 151/2/1 152/3/1
f 153/4/1 154/1/1 155/2/1 156/3/1
f 157/4/1 158/1/1 159/2/1 160/3/1
f 161/4/1 162/1/1 163/2/1 164/3/1
f 165/4/1 166/1/1 167/2/1 168/3/1
f 169/4/1 170/1/1 171/2/1 172/3/1
f 173/4/1 174/1/1 175/2/1 176/3/1
f 177/4/1 178/1/1 179/2/1 180/3/1
f 181/4/1 182/1/1 183/2/1 184/3/1

