﻿# Tiled2Unity generated file. Do not modify by hand.
# Wavefront file for 'Level3Alt1_mesh_0038.obj'

# Vertices (Count = 8)
v -30 -44 0
v -31 -44 0
v -31 -43 0
v -30 -43 0
v -28 -45 0
v -29 -45 0
v -29 -44 0
v -28 -44 0

# Texture cooridinates (Count = 4)
vt 0 0
vt 1 0
vt 1 1
vt 0 1

# Normal
vn 0 0 -1

# Mesh description
g Level3Alt1_mesh_0038

# Faces
f 1/1/1 2/2/1 3/3/1 4/4/1
f 5/1/1 6/2/1 7/3/1 8/4/1

