﻿# Tiled2Unity generated file. Do not modify by hand.
# Wavefront file for 'Level3_mesh_0036.obj'

# Vertices (Count = 4)
v -45 -59 0
v -46 -59 0
v -46 -58 0
v -45 -58 0

# Texture cooridinates (Count = 4)
vt 0.0001220703 0.0001220703
vt 0.9998779 0.0001220703
vt 0.9998779 0.9998779
vt 0.0001220703 0.9998779

# Normal
vn 0 0 -1

# Mesh description
g Level3_mesh_0036

# Faces
f 1/1/1 2/2/1 3/3/1 4/4/1

