﻿# Tiled2Unity generated file. Do not modify by hand.
# Wavefront file for 'Level3_mesh_0004.obj'

# Vertices (Count = 240)
v -83 -41 0
v -84 -41 0
v -84 -40 0
v -83 -40 0
v -63 -48 0
v -64 -48 0
v -64 -47 0
v -63 -47 0
v -64 -48 0
v -65 -48 0
v -65 -47 0
v -64 -47 0
v -65 -48 0
v -66 -48 0
v -66 -47 0
v -65 -47 0
v -66 -48 0
v -67 -48 0
v -67 -47 0
v -66 -47 0
v -71 -48 0
v -72 -48 0
v -72 -47 0
v -71 -47 0
v -72 -48 0
v -73 -48 0
v -73 -47 0
v -72 -47 0
v -73 -48 0
v -74 -48 0
v -74 -47 0
v -73 -47 0
v -74 -48 0
v -75 -48 0
v -75 -47 0
v -74 -47 0
v -30 -55 0
v -31 -55 0
v -31 -54 0
v -30 -54 0
v -31 -55 0
v -32 -55 0
v -32 -54 0
v -31 -54 0
v -32 -55 0
v -33 -55 0
v -33 -54 0
v -32 -54 0
v -33 -55 0
v -34 -55 0
v -34 -54 0
v -33 -54 0
v -34 -55 0
v -35 -55 0
v -35 -54 0
v -34 -54 0
v -35 -55 0
v -36 -55 0
v -36 -54 0
v -35 -54 0
v -36 -55 0
v -37 -55 0
v -37 -54 0
v -36 -54 0
v -37 -55 0
v -38 -55 0
v -38 -54 0
v -37 -54 0
v -38 -55 0
v -39 -55 0
v -39 -54 0
v -38 -54 0
v -39 -55 0
v -40 -55 0
v -40 -54 0
v -39 -54 0
v -23 -56 0
v -24 -56 0
v -24 -55 0
v -23 -55 0
v -26 -56 0
v -27 -56 0
v -27 -55 0
v -26 -55 0
v -27 -56 0
v -28 -56 0
v -28 -55 0
v -27 -55 0
v -28 -56 0
v -29 -56 0
v -29 -55 0
v -28 -55 0
v -29 -56 0
v -30 -56 0
v -30 -55 0
v -29 -55 0
v -30 -56 0
v -31 -56 0
v -31 -55 0
v -30 -55 0
v -31 -56 0
v -32 -56 0
v -32 -55 0
v -31 -55 0
v -32 -56 0
v -33 -56 0
v -33 -55 0
v -32 -55 0
v -33 -56 0
v -34 -56 0
v -34 -55 0
v -33 -55 0
v -34 -56 0
v -35 -56 0
v -35 -55 0
v -34 -55 0
v -35 -56 0
v -36 -56 0
v -36 -55 0
v -35 -55 0
v -36 -56 0
v -37 -56 0
v -37 -55 0
v -36 -55 0
v -37 -56 0
v -38 -56 0
v -38 -55 0
v -37 -55 0
v -38 -56 0
v -39 -56 0
v -39 -55 0
v -38 -55 0
v -39 -56 0
v -40 -56 0
v -40 -55 0
v -39 -55 0
v -40 -56 0
v -41 -56 0
v -41 -55 0
v -40 -55 0
v -41 -56 0
v -42 -56 0
v -42 -55 0
v -41 -55 0
v -42 -56 0
v -43 -56 0
v -43 -55 0
v -42 -55 0
v -43 -56 0
v -44 -56 0
v -44 -55 0
v -43 -55 0
v -26 -60 0
v -27 -60 0
v -27 -59 0
v -26 -59 0
v -27 -60 0
v -28 -60 0
v -28 -59 0
v -27 -59 0
v -28 -60 0
v -29 -60 0
v -29 -59 0
v -28 -59 0
v -29 -60 0
v -30 -60 0
v -30 -59 0
v -29 -59 0
v -30 -60 0
v -31 -60 0
v -31 -59 0
v -30 -59 0
v -31 -60 0
v -32 -60 0
v -32 -59 0
v -31 -59 0
v -32 -60 0
v -33 -60 0
v -33 -59 0
v -32 -59 0
v -33 -60 0
v -34 -60 0
v -34 -59 0
v -33 -59 0
v -34 -60 0
v -35 -60 0
v -35 -59 0
v -34 -59 0
v -35 -60 0
v -36 -60 0
v -36 -59 0
v -35 -59 0
v -36 -60 0
v -37 -60 0
v -37 -59 0
v -36 -59 0
v -37 -60 0
v -38 -60 0
v -38 -59 0
v -37 -59 0
v -38 -60 0
v -39 -60 0
v -39 -59 0
v -38 -59 0
v -39 -60 0
v -40 -60 0
v -40 -59 0
v -39 -59 0
v -40 -60 0
v -41 -60 0
v -41 -59 0
v -40 -59 0
v -41 -60 0
v -42 -60 0
v -42 -59 0
v -41 -59 0
v -42 -60 0
v -43 -60 0
v -43 -59 0
v -42 -59 0
v -43 -60 0
v -44 -60 0
v -44 -59 0
v -43 -59 0
v -44 -60 0
v -45 -60 0
v -45 -59 0
v -44 -59 0
v -45 -60 0
v -46 -60 0
v -46 -59 0
v -45 -59 0
v -46 -60 0
v -47 -60 0
v -47 -59 0
v -46 -59 0
v -64 -62 0
v -65 -62 0
v -65 -61 0
v -64 -61 0

# Texture cooridinates (Count = 4)
vt 0.0001220703 0.0001220703
vt 0.9998779 0.0001220703
vt 0.9998779 0.9998779
vt 0.0001220703 0.9998779

# Normal
vn 0 0 -1

# Mesh description
g Level3_mesh_0004

# Faces
f 1/1/1 2/2/1 3/3/1 4/4/1
f 5/1/1 6/2/1 7/3/1 8/4/1
f 9/1/1 10/2/1 11/3/1 12/4/1
f 13/1/1 14/2/1 15/3/1 16/4/1
f 17/1/1 18/2/1 19/3/1 20/4/1
f 21/1/1 22/2/1 23/3/1 24/4/1
f 25/1/1 26/2/1 27/3/1 28/4/1
f 29/1/1 30/2/1 31/3/1 32/4/1
f 33/1/1 34/2/1 35/3/1 36/4/1
f 37/1/1 38/2/1 39/3/1 40/4/1
f 41/1/1 42/2/1 43/3/1 44/4/1
f 45/1/1 46/2/1 47/3/1 48/4/1
f 49/1/1 50/2/1 51/3/1 52/4/1
f 53/1/1 54/2/1 55/3/1 56/4/1
f 57/1/1 58/2/1 59/3/1 60/4/1
f 61/1/1 62/2/1 63/3/1 64/4/1
f 65/1/1 66/2/1 67/3/1 68/4/1
f 69/1/1 70/2/1 71/3/1 72/4/1
f 73/1/1 74/2/1 75/3/1 76/4/1
f 77/1/1 78/2/1 79/3/1 80/4/1
f 81/1/1 82/2/1 83/3/1 84/4/1
f 85/1/1 86/2/1 87/3/1 88/4/1
f 89/1/1 90/2/1 91/3/1 92/4/1
f 93/1/1 94/2/1 95/3/1 96/4/1
f 97/1/1 98/2/1 99/3/1 100/4/1
f 101/1/1 102/2/1 103/3/1 104/4/1
f 105/1/1 106/2/1 107/3/1 108/4/1
f 109/1/1 110/2/1 111/3/1 112/4/1
f 113/1/1 114/2/1 115/3/1 116/4/1
f 117/1/1 118/2/1 119/3/1 120/4/1
f 121/1/1 122/2/1 123/3/1 124/4/1
f 125/1/1 126/2/1 127/3/1 128/4/1
f 129/1/1 130/2/1 131/3/1 132/4/1
f 133/1/1 134/2/1 135/3/1 136/4/1
f 137/1/1 138/2/1 139/3/1 140/4/1
f 141/1/1 142/2/1 143/3/1 144/4/1
f 145/1/1 146/2/1 147/3/1 148/4/1
f 149/1/1 150/2/1 151/3/1 152/4/1
f 153/1/1 154/2/1 155/3/1 156/4/1
f 157/1/1 158/2/1 159/3/1 160/4/1
f 161/1/1 162/2/1 163/3/1 164/4/1
f 165/1/1 166/2/1 167/3/1 168/4/1
f 169/1/1 170/2/1 171/3/1 172/4/1
f 173/1/1 174/2/1 175/3/1 176/4/1
f 177/1/1 178/2/1 179/3/1 180/4/1
f 181/1/1 182/2/1 183/3/1 184/4/1
f 185/1/1 186/2/1 187/3/1 188/4/1
f 189/1/1 190/2/1 191/3/1 192/4/1
f 193/1/1 194/2/1 195/3/1 196/4/1
f 197/1/1 198/2/1 199/3/1 200/4/1
f 201/1/1 202/2/1 203/3/1 204/4/1
f 205/1/1 206/2/1 207/3/1 208/4/1
f 209/1/1 210/2/1 211/3/1 212/4/1
f 213/1/1 214/2/1 215/3/1 216/4/1
f 217/1/1 218/2/1 219/3/1 220/4/1
f 221/1/1 222/2/1 223/3/1 224/4/1
f 225/1/1 226/2/1 227/3/1 228/4/1
f 229/1/1 230/2/1 231/3/1 232/4/1
f 233/1/1 234/2/1 235/3/1 236/4/1
f 237/1/1 238/2/1 239/3/1 240/4/1

