﻿# Tiled2Unity generated file. Do not modify by hand.
# Wavefront file for 'Level3_mesh_0037.obj'

# Vertices (Count = 12)
v -87 -42 0
v -88 -42 0
v -88 -41 0
v -87 -41 0
v -78 -49 0
v -79 -49 0
v -79 -48 0
v -78 -48 0
v -46 -55 0
v -47 -55 0
v -47 -54 0
v -46 -54 0

# Texture cooridinates (Count = 4)
vt 0.0001220703 0.0001220703
vt 0.9998779 0.0001220703
vt 0.9998779 0.9998779
vt 0.0001220703 0.9998779

# Normal
vn 0 0 -1

# Mesh description
g Level3_mesh_0037

# Faces
f 1/1/1 2/2/1 3/3/1 4/4/1
f 5/1/1 6/2/1 7/3/1 8/4/1
f 9/1/1 10/2/1 11/3/1 12/4/1

