﻿# Tiled2Unity generated file. Do not modify by hand.
# Wavefront file for 'Level3_mesh_0041.obj'

# Vertices (Count = 12)
v -86 -42 0
v -87 -42 0
v -87 -41 0
v -86 -41 0
v -27 -55 0
v -28 -55 0
v -28 -54 0
v -27 -54 0
v -21 -56 0
v -22 -56 0
v -22 -55 0
v -21 -55 0

# Texture cooridinates (Count = 4)
vt 0.0001220703 0.0001220703
vt 0.9998779 0.0001220703
vt 0.9998779 0.9998779
vt 0.0001220703 0.9998779

# Normal
vn 0 0 -1

# Mesh description
g Level3_mesh_0041

# Faces
f 1/1/1 2/2/1 3/3/1 4/4/1
f 5/1/1 6/2/1 7/3/1 8/4/1
f 9/1/1 10/2/1 11/3/1 12/4/1

