﻿# Tiled2Unity generated file. Do not modify by hand.
# Wavefront file for 'AftNexus_mesh_0008.obj'

# Vertices (Count = 120)
v -25 -141 0
v -26 -141 0
v -26 -140 0
v -25 -140 0
v -29 -141 0
v -30 -141 0
v -30 -140 0
v -29 -140 0
v -37 -141 0
v -38 -141 0
v -38 -140 0
v -37 -140 0
v -42 -141 0
v -43 -141 0
v -43 -140 0
v -42 -140 0
v -47 -142 0
v -48 -142 0
v -48 -141 0
v -47 -141 0
v -52 -143 0
v -53 -143 0
v -53 -142 0
v -52 -142 0
v -56 -145 0
v -57 -145 0
v -57 -144 0
v -56 -144 0
v -60 -147 0
v -61 -147 0
v -61 -146 0
v -60 -146 0
v -29 -149 0
v -30 -149 0
v -30 -148 0
v -29 -148 0
v -63 -149 0
v -64 -149 0
v -64 -148 0
v -63 -148 0
v -62 -156 0
v -63 -156 0
v -63 -155 0
v -62 -155 0
v -32 -157 0
v -33 -157 0
v -33 -156 0
v -32 -156 0
v -67 -157 0
v -68 -157 0
v -68 -156 0
v -67 -156 0
v -68 -157 0
v -69 -157 0
v -69 -156 0
v -68 -156 0
v -20 -158 0
v -21 -158 0
v -21 -157 0
v -20 -157 0
v -24 -158 0
v -25 -158 0
v -25 -157 0
v -24 -157 0
v -15 -159 0
v -16 -159 0
v -16 -158 0
v -15 -158 0
v -39 -159 0
v -40 -159 0
v -40 -158 0
v -39 -158 0
v -11 -160 0
v -12 -160 0
v -12 -159 0
v -11 -159 0
v -77 -160 0
v -78 -160 0
v -78 -159 0
v -77 -159 0
v -82 -160 0
v -83 -160 0
v -83 -159 0
v -82 -159 0
v -53 -161 0
v -54 -161 0
v -54 -160 0
v -53 -160 0
v -48 -162 0
v -49 -162 0
v -49 -161 0
v -48 -161 0
v -25 -163 0
v -26 -163 0
v -26 -162 0
v -25 -162 0
v -28 -168 0
v -29 -168 0
v -29 -167 0
v -28 -167 0
v -32 -168 0
v -33 -168 0
v -33 -167 0
v -32 -167 0
v -36 -168 0
v -37 -168 0
v -37 -167 0
v -36 -167 0
v -40 -169 0
v -41 -169 0
v -41 -168 0
v -40 -168 0
v -54 -176 0
v -55 -176 0
v -55 -175 0
v -54 -175 0
v -58 -176 0
v -59 -176 0
v -59 -175 0
v -58 -175 0

# Texture cooridinates (Count = 4)
vt 1 1
vt 0 1
vt 0 0
vt 1 0

# Normal
vn 0 0 -1

# Mesh description
g AftNexus_mesh_0008

# Faces
f 1/1/1 2/2/1 3/3/1 4/4/1
f 5/1/1 6/2/1 7/3/1 8/4/1
f 9/1/1 10/2/1 11/3/1 12/4/1
f 13/1/1 14/2/1 15/3/1 16/4/1
f 17/1/1 18/2/1 19/3/1 20/4/1
f 21/1/1 22/2/1 23/3/1 24/4/1
f 25/1/1 26/2/1 27/3/1 28/4/1
f 29/1/1 30/2/1 31/3/1 32/4/1
f 33/1/1 34/2/1 35/3/1 36/4/1
f 37/1/1 38/2/1 39/3/1 40/4/1
f 41/1/1 42/2/1 43/3/1 44/4/1
f 45/1/1 46/2/1 47/3/1 48/4/1
f 49/1/1 50/2/1 51/3/1 52/4/1
f 53/1/1 54/2/1 55/3/1 56/4/1
f 57/1/1 58/2/1 59/3/1 60/4/1
f 61/1/1 62/2/1 63/3/1 64/4/1
f 65/1/1 66/2/1 67/3/1 68/4/1
f 69/1/1 70/2/1 71/3/1 72/4/1
f 73/1/1 74/2/1 75/3/1 76/4/1
f 77/1/1 78/2/1 79/3/1 80/4/1
f 81/1/1 82/2/1 83/3/1 84/4/1
f 85/1/1 86/2/1 87/3/1 88/4/1
f 89/1/1 90/2/1 91/3/1 92/4/1
f 93/1/1 94/2/1 95/3/1 96/4/1
f 97/1/1 98/2/1 99/3/1 100/4/1
f 101/1/1 102/2/1 103/3/1 104/4/1
f 105/1/1 106/2/1 107/3/1 108/4/1
f 109/1/1 110/2/1 111/3/1 112/4/1
f 113/1/1 114/2/1 115/3/1 116/4/1
f 117/1/1 118/2/1 119/3/1 120/4/1

