%YAML 1.1
%TAG !u! tag:unity3d.com,2011:
--- !u!114 &11400000
MonoBehaviour:
  m_ObjectHideFlags: 0
  m_PrefabParentObject: {fileID: 0}
  m_PrefabInternal: {fileID: 0}
  m_GameObject: {fileID: 0}
  m_Enabled: 1
  m_EditorHideFlags: 0
  m_Script: {fileID: 11500000, guid: da4da55cd6abc284b9f5af75ca3ebdd2, type: 3}
  m_Name: TurnAction
  m_EditorClassIdentifier: 
  m_name: Turn
  m_tutorialDescription: Press 2 white keys with 3 gaps between
  m_inputPattern:
    m_inputs:
    - m_noteMode: 0
      m_noteValue: 0
      m_keyOverride: {fileID: 0}
      m_timeMode: 0
      m_timeValue: 0
      m_timeValueLeeway: 0
      m_pressMode: 1
      m_pressValue: 1
    - m_noteMode: 2
      m_noteValue: 4
      m_keyOverride: {fileID: 0}
      m_timeMode: 1
      m_timeValue: 0
      m_timeValueLeeway: 0.5
      m_pressMode: 1
      m_pressValue: 1
  m_rematchOnCompletion: 0
  m_animationName: 
