%YAML 1.1
%TAG !u! tag:unity3d.com,2011:
--- !u!114 &11400000
MonoBehaviour:
  m_ObjectHideFlags: 0
  m_PrefabParentObject: {fileID: 0}
  m_PrefabInternal: {fileID: 0}
  m_GameObject: {fileID: 0}
  m_Enabled: 1
  m_EditorHideFlags: 0
  m_Script: {fileID: 11500000, guid: 8dd6d0076fa5d72458defa6bf2023976, type: 3}
  m_Name: WallAscendAction
  m_EditorClassIdentifier: 
  m_name: Climb up
  m_tutorialDescription: Play a rising sequence
  m_inputPattern:
    m_inputs:
    - m_noteMode: 0
      m_noteValue: 0
      m_keyOverride: {fileID: 0}
      m_timeMode: 0
      m_timeValue: 0
      m_timeValueLeeway: 0
      m_pressMode: 1
      m_pressValue: 1
    - m_noteMode: 1
      m_noteValue: 1
      m_keyOverride: {fileID: 0}
      m_timeMode: 0
      m_timeValue: 0
      m_timeValueLeeway: 0
      m_pressMode: 1
      m_pressValue: 1
  m_rematchOnCompletion: 1
  m_animationName: ClimbWall
  m_startsLearnt: 0
