%YAML 1.1
%TAG !u! tag:unity3d.com,2011:
--- !u!1045 &1
EditorBuildSettings:
  m_ObjectHideFlags: 0
  serializedVersion: 2
  m_Scenes:
  - enabled: 1
    path: Assets/Scenes/Menu.unity
    guid: f94e7f31f2b38774ab94f7859870fb5a
  - enabled: 1
    path: Assets/Scenes/Level1Alt2.unity
    guid: c98e749bd3790ea4b90ea2921306e32f
  - enabled: 1
    path: Assets/Scenes/Level2Alt1.unity
    guid: 65d269641ec273a4b9d2172da2ed788a
  - enabled: 1
    path: Assets/Scenes/Level3Alt2.unity
    guid: 011047ce21928e443b2f69978c866c1a
  - enabled: 1
    path: Assets/Scenes/AftNexus.unity
    guid: 6ff4a42a565fde649a7f950a40fd527e
  - enabled: 1
    path: Assets/Scenes/TheEnd.unity
    guid: 0d838e8f9667dc64cb8e3aafb068538f
