﻿# Tiled2Unity generated file. Do not modify by hand.
# Wavefront file for 'NormalMapTest_mesh_0010.obj'

# Vertices (Count = 4)
v -40 -4 0
v -41 -4 0
v -41 -3 0
v -40 -3 0

# Texture cooridinates (Count = 4)
vt 0.0001220703 0.0001220703
vt 0.9998779 0.0001220703
vt 0.9998779 0.9998779
vt 0.0001220703 0.9998779

# Normal
vn 0 0 -1

# Mesh description
g NormalMapTest_mesh_0010

# Faces
f 1/1/1 2/2/1 3/3/1 4/4/1

