﻿# Tiled2Unity generated file. Do not modify by hand.
# Wavefront file for 'Level1Alt_mesh_0023.obj'

# Vertices (Count = 8)
v -35 -42 0
v -36 -42 0
v -36 -41 0
v -35 -41 0
v -40 -42 0
v -41 -42 0
v -41 -41 0
v -40 -41 0

# Texture cooridinates (Count = 4)
vt 0.0001220703 0.9998779
vt 0.0001220703 0.0001220703
vt 0.9998779 0.0001220703
vt 0.9998779 0.9998779

# Normal
vn 0 0 -1

# Mesh description
g Level1Alt_mesh_0023

# Faces
f 1/1/1 2/2/1 3/3/1 4/4/1
f 5/2/1 6/1/1 7/4/1 8/3/1

