﻿# Tiled2Unity generated file. Do not modify by hand.
# Wavefront file for 'Level1Alt_mesh_0019.obj'

# Vertices (Count = 4)
v -45 -46 0
v -46 -46 0
v -46 -45 0
v -45 -45 0

# Texture cooridinates (Count = 4)
vt 0.0001220703 0.0001220703
vt 0.9998779 0.0001220703
vt 0.9998779 0.9998779
vt 0.0001220703 0.9998779

# Normal
vn 0 0 -1

# Mesh description
g Level1Alt_mesh_0019

# Faces
f 1/1/1 2/2/1 3/3/1 4/4/1

