﻿# Tiled2Unity generated file. Do not modify by hand.
# Wavefront file for 'Level1_mesh_0017.obj'

# Vertices (Count = 52)
v -56 -53 0
v -57 -53 0
v -57 -52 0
v -56 -52 0
v -57 -53 0
v -58 -53 0
v -58 -52 0
v -57 -52 0
v -48 -54 0
v -49 -54 0
v -49 -53 0
v -48 -53 0
v -49 -54 0
v -50 -54 0
v -50 -53 0
v -49 -53 0
v -50 -54 0
v -51 -54 0
v -51 -53 0
v -50 -53 0
v -51 -54 0
v -52 -54 0
v -52 -53 0
v -51 -53 0
v -64 -54 0
v -65 -54 0
v -65 -53 0
v -64 -53 0
v -65 -54 0
v -66 -54 0
v -66 -53 0
v -65 -53 0
v -66 -54 0
v -67 -54 0
v -67 -53 0
v -66 -53 0
v -67 -54 0
v -68 -54 0
v -68 -53 0
v -67 -53 0
v -74 -54 0
v -75 -54 0
v -75 -53 0
v -74 -53 0
v -75 -54 0
v -76 -54 0
v -76 -53 0
v -75 -53 0
v -76 -54 0
v -77 -54 0
v -77 -53 0
v -76 -53 0

# Texture cooridinates (Count = 4)
vt 0.0001220703 0.0001220703
vt 0.9998779 0.0001220703
vt 0.9998779 0.9998779
vt 0.0001220703 0.9998779

# Normal
vn 0 0 -1

# Mesh description
g Level1_mesh_0017

# Faces
f 1/1/1 2/2/1 3/3/1 4/4/1
f 5/1/1 6/2/1 7/3/1 8/4/1
f 9/1/1 10/2/1 11/3/1 12/4/1
f 13/1/1 14/2/1 15/3/1 16/4/1
f 17/1/1 18/2/1 19/3/1 20/4/1
f 21/1/1 22/2/1 23/3/1 24/4/1
f 25/1/1 26/2/1 27/3/1 28/4/1
f 29/1/1 30/2/1 31/3/1 32/4/1
f 33/1/1 34/2/1 35/3/1 36/4/1
f 37/1/1 38/2/1 39/3/1 40/4/1
f 41/1/1 42/2/1 43/3/1 44/4/1
f 45/1/1 46/2/1 47/3/1 48/4/1
f 49/1/1 50/2/1 51/3/1 52/4/1

